{
    "name_str": "Test building",
    "resource_source_gravel": true,
    "resource_source_open": true,
    "productions": {
        "gravel": 125.0
    },
    "consumptions": {
        "oil": 250.0
    },
    "consumptions_per_seconds": {
        "eletric": 20.0
    },
    "storages": [
        {
            "type": "FUEL",
            "resource_transport": "OIL",
            "amount": 6.0
        },
        {
            "type": "IMPORT_CARPLANT",
            "resource_transport": "COVERED",
            "amount": 5.0
        },
        {
            "type": "IMPORT_CARPLANT",
            "resource_transport": "OPEN",
            "amount": 30.0
        },
        {
            "type": "IMPORT",
            "resource_transport": "GRAVEL",
            "amount": 55.0
        },
        {
            "type": "IMPORT_SPECIAL",
            "resource_transport": "OIL",
            "resource": "bitumen",
            "amount": 55.0
        },
        {
            "type": "DEMAND_BASIC",
            "resource_transport": "COVERED",
            "amount": 6.0
        },
        {
            "type": "LIVING_AUTO",
            "model_part": "MainStorageLivingNode"
        }
    ],
    "resources_visualizations": [
        {
            "storage_index": 0,
            "position": {
                "x": -1.0,
                "y": -2.3,
                "z": 3.322
            },
            "rotation": 45.0,
            "scale": {
                "x": 1.2,
                "y": 3.4,
                "z": 5.6
            },
            "numstepx": {
                "offsetX": 5.2,
                "amount": 5.0
            },
            "numstept": {
                "offsetZ": 2.1,
                "amount": 2.0
            }
        },
        {
            "storage_index": 0,
            "position": {
                "x": 1.0,
                "y": 2.0,
                "z": 3.678
            },
            "rotation": 45.0,
            "scale": {
                "x": 1.2,
                "y": 3.4,
                "z": 5.6
            },
            "numstepx": {
                "offsetX": 5.2,
                "amount": 5.0
            },
            "numstept": {
                "offsetZ": 2.1,
                "amount": 2.0
            }
        }
    ],
    "points": [
        {
            "type": "resource_increase_point",
            "storage_index": 2,
            "point": {
                "x": 1.0,
                "y": 2.0,
                "z": 3.678
            }
        },
        {
            "type": "resource_increase_conveyor_point",
            "storage_index": 2,
            "point1": {
                "x": -10.0,
                "y": 5.0,
                "z": 10.0
            },
            "point2": {
                "x": 10.0,
                "y": -5.0,
                "z": -10.0
            }
        },
        {
            "type": "vehicle_parking_advanced_point",
            "point": {
                "x": 3.2,
                "y": 0.0,
                "z": 9.4
            }
        },
        {
            "type": "vehicle_parking_advanced_point_pid",
            "parking_index": 2,
            "point": {
                "x": 3.0,
                "y": 4.0,
                "z": 5.6
            }
        },
        {
            "type": "station_not_block_detour_point",
            "point": {
                "x": 1.2,
                "y": 3.4,
                "z": 5.6
            }
        },
        {
            "type": "station_not_block_detour_point_pid",
            "station_index": 1,
            "point": {
                "x": 2.0,
                "y": 3.0,
                "z": 4.5
            }
        }
    ],
    "stations": [
        {
            "point1": {
                "x": 27.8238,
                "y": 0.0,
                "z": 0.0
            },
            "point2": {
                "x": 163.362,
                "y": 0.0,
                "z": 0.0
            },
            "type": "SHIP"
        },
        {
            "point1": {
                "x": 27.8238,
                "y": 0.0,
                "z": 30.0
            },
            "point2": {
                "x": 163.362,
                "y": 0.0,
                "z": 30.0
            },
            "type": "SHIP"
        },
        {
            "point1": {
                "x": 27.8238,
                "y": 0.0,
                "z": -30.0
            },
            "point2": {
                "x": 163.362,
                "y": 0.0,
                "z": -30.0
            },
            "type": "SHIP"
        },
        {
            "point1": {
                "x": 15.987,
                "y": 0.0,
                "z": -5.789
            },
            "point2": {
                "x": 44.565,
                "y": 0.0,
                "z": 0.987
            },
            "type": "VEHICLE"
        },
        {
            "point1": {
                "x": -15.987,
                "y": 0.0,
                "z": -5.789
            },
            "point2": {
                "x": -44.565,
                "y": 0.0,
                "z": 0.987
            },
            "type": "VEHICLE"
        }
    ],
    "particles": [
        {
            "effect_name": "residential_heating",
            "point": {
                "x": 1.678,
                "y": 0.0,
                "z": -9.876
            },
            "alpha": 1.0,
            "scale": 4.87
        }
    ],
    "connections": [
        {
            "type": "ROAD",
            "point1": {
                "x": -11.0,
                "y": 5.0,
                "z": 11.0
            },
            "point2": {
                "x": 11.0,
                "y": -5.0,
                "z": -11.0
            }
        },
        {
            "type": "ROAD_BORDER",
            "point1": {
                "x": -12.0,
                "y": 5.0,
                "z": 12.0
            },
            "point2": {
                "x": 12.0,
                "y": -5.0,
                "z": -12.0
            }
        },
        {
            "type": "ROAD_ALLOWPASS",
            "point1": {
                "x": -13.0,
                "y": 5.0,
                "z": 13.0
            },
            "point2": {
                "x": 13.0,
                "y": -5.0,
                "z": -13.0
            }
        },
        {
            "type": "ROAD_DEAD",
            "point1": {
                "x": -14.0,
                "y": 5.0,
                "z": 14.0
            },
            "point2": {
                "x": 14.0,
                "y": 5.0,
                "z": -14.0
            }
        },
        {
            "type": "ROAD_DEAD_SQUARE",
            "point1": {
                "x": 10.0,
                "z": -10.0
            },
            "point2": {
                "x": -10.0,
                "z": 10.0
            }
        },
        {
            "type": "RAIL",
            "point1": {
                "x": -15.0,
                "y": 5.0,
                "z": 15.0
            },
            "point2": {
                "x": 15.0,
                "y": -5.0,
                "z": -15.0
            }
        },
        {
            "type": "RAIL_ALLOWPASS",
            "point1": {
                "x": -16.0,
                "y": 5.0,
                "z": 16.0
            },
            "point2": {
                "x": 16.0,
                "y": -5.0,
                "z": -16.0
            }
        },
        {
            "type": "PEDESTRIAN",
            "point1": {
                "x": -17.0,
                "y": 5.0,
                "z": 17.0
            },
            "point2": {
                "x": 17.0,
                "y": -5.0,
                "z": -17.0
            }
        },
        {
            "type": "CONNECTION",
            "point1": {
                "x": -18.0,
                "y": 5.0,
                "z": 18.0
            },
            "point2": {
                "x": 18.0,
                "y": -5.0,
                "z": -18.0
            }
        },
        {
            "type": "PIPE_INPUT",
            "point1": {
                "x": 0.9618,
                "y": 2.0822,
                "z": -14.8395
            },
            "point2": {
                "x": 0.9618,
                "y": 2.0822,
                "z": -12.8395
            }
        },
        {
            "type": "PIPE_OUTPUT",
            "point1": {
                "x": -19.0,
                "y": 5.0,
                "z": 19.0
            },
            "point2": {
                "x": 19.0,
                "y": -5.0,
                "z": -19.0
            }
        },
        {
            "type": "STEAM_INPUT",
            "point1": {
                "x": -20.0,
                "y": 5.0,
                "z": 20.0
            },
            "point2": {
                "x": 20.0,
                "y": -5.0,
                "z": -20.0
            }
        },
        {
            "type": "STEAM_OUTPUT",
            "point1": {
                "x": -21.0,
                "y": 5.0,
                "z": 21.0
            },
            "point2": {
                "x": 21.0,
                "y": -5.0,
                "z": -21.0
            }
        },
        {
            "type": "HEATING_SMALL",
            "point1": {
                "x": -22.0,
                "y": 5.0,
                "z": 22.0
            },
            "point2": {
                "x": 22.0,
                "y": -5.0,
                "z": -22.0
            }
        },
        {
            "type": "HEATING_BIG",
            "point1": {
                "x": -23.0,
                "y": 5.0,
                "z": 23.0
            },
            "point2": {
                "x": 23.0,
                "y": -5.0,
                "z": -23.0
            }
        },
        {
            "type": "CONVEYOR_INPUT",
            "point1": {
                "x": -24.0,
                "y": 5.0,
                "z": 24.0
            },
            "point2": {
                "x": 24.0,
                "y": -5.0,
                "z": -24.0
            }
        },
        {
            "type": "CONVEYOR_OUTPUT",
            "point1": {
                "x": -25.0,
                "y": 5.0,
                "z": 25.0
            },
            "point2": {
                "x": 25.0,
                "y": -5.0,
                "z": -25.0
            }
        },
        {
            "type": "BULK_INPUT",
            "point1": {
                "x": -26.0,
                "y": 5.0,
                "z": 26.0
            },
            "point2": {
                "x": 26.0,
                "y": -5.0,
                "z": -26.0
            }
        },
        {
            "type": "BULK_OUTPUT",
            "point1": {
                "x": -27.0,
                "y": 5.0,
                "z": 27.0
            },
            "point2": {
                "x": 27.0,
                "y": -5.0,
                "z": -27.0
            }
        },
        {
            "type": "ELETRIC_HIGH_INPUT",
            "point1": {
                "x": -28.0,
                "y": 5.0,
                "z": 28.0
            },
            "point2": {
                "x": 28.0,
                "y": -5.0,
                "z": -28.0
            }
        },
        {
            "type": "ELETRIC_HIGH_OUTPUT",
            "point1": {
                "x": -29.0,
                "y": 5.0,
                "z": 29.0
            },
            "point2": {
                "x": 29.0,
                "y": -5.0,
                "z": -29.0
            }
        },
        {
            "type": "ELETRIC_LOW_INPUT",
            "point1": {
                "x": -30.0,
                "y": 5.0,
                "z": 30.0
            },
            "point2": {
                "x": 30.0,
                "y": -5.0,
                "z": -30.0
            }
        },
        {
            "type": "ELETRIC_LOW_OUTPUT",
            "point1": {
                "x": -31.0,
                "y": 5.0,
                "z": 31.0
            },
            "point2": {
                "x": 31.0,
                "y": -5.0,
                "z": -31.0
            }
        },
        {
            "type": "CABLEWAY",
            "point1": {
                "x": -32.0,
                "y": 5.0,
                "z": 32.0
            },
            "point2": {
                "x": 32.0,
                "y": -5.0,
                "z": -32.0
            }
        }
    ],
    "parkings": [
        {
            "point1": {
                "x": 55.0,
                "y": 10.0,
                "z": 0.0
            },
            "point2": {
                "x": -55.0,
                "y": -10.0,
                "z": 5.5
            },
            "type": "VEHICLE"
        },
        {
            "point1": {
                "x": 56.0,
                "y": 10.0,
                "z": 0.0
            },
            "point2": {
                "x": -56.0,
                "y": -10.0,
                "z": 5.5
            },
            "type": "VEHICLE"
        },
        {
            "point1": {
                "x": 3.0,
                "y": 2.0,
                "z": 1.0
            },
            "point2": {
                "x": -1.0,
                "y": -2.0,
                "z": -3.0
            },
            "type": "VEHICLE_PERSONAL"
        }
    ],
    "roadvehicle_notflip": true,
    "roadvehicle_eletric": true,
    "station_not_block": true,
    "attractive_use_forgot_even_match": true,
    "attractive_factor_nature": 5.0,
    "attractive_factor_nature_add": 6.0,
    "attractive_factor_pollution": 1.2,
    "attractive_factor_pollution_add": 1.3,
    "attractive_factor_sight": 0.4,
    "attractive_factor_sight_add": 0.5,
    "attractive_factor_water": 0.2,
    "attractive_factor_water_add": 0.3,
    "attractive_score": 4.8,
    "attractive_score_alcohol": 4.2,
    "attractive_score_culture": 2.1,
    "attractive_score_religion": 3.4,
    "attractive_score_sport": 1.0,
    "attractive_type_carusel": 2,
    "attractive_type_gallery": 3,
    "attractive_type_museum": 4,
    "attractive_type_sight": 5,
    "attractive_type_swim": 1,
    "attractive_type_zoo": 6,
    "citizen_able_serve": 24,
    "heating": "DISABLE",
    "vehicle_cannotselect_inside": true,
    "workers_rendering_areas": [
        {
            "point1": {
                "x": 1.0,
                "y": 2.0,
                "z": 3.0
            },
            "point2": {
                "x": 4.0,
                "y": 5.0,
                "z": 6.0
            }
        }
    ],
    "long_trains": true,
    "subtype": "TECHNICAL",
    "text_caption": {
        "point1": {
            "x": -33.0,
            "y": 5.0,
            "z": 33.0
        },
        "point2": {
            "x": 33.0,
            "y": -5.0,
            "z": -33.0
        }
    },
    "type": "UNIVERSITY",
    "vehicle_loading_factor": 4.0,
    "vehicle_unloading_factor": 2.0,
    "workers_needed": 201,
    "working_vehicles_needed": 67,
    "eletric_consumption_lighting_worker_factor": 1.1,
    "eletric_consumption_lighting_worker_factor_able_serve": 0.3,
    "eletric_consumption_living_worker_factor": 1.2,
    "eletric_consumption_living_worker_factor_able_serve": 0.1,
    "eletric_consumption_loading_fixed": 1.25,
    "eletric_consumption_unloading_fixed": 0.75,
    "eletric_without_lighting_factor": 0.1,
    "eletric_without_working_factor": 0.5,
    "engine_speed": 6.0,
    "heating_without_working_factor": 0.2,
    "pollutions": ["SMALL"],
    "profesors_needed": 12,
    "quality_of_living": 96.0,
    "seasonal_close_if_temp_above": 25,
    "seasonal_close_if_temp_bellow": 5,
    "costs_works": {
        "SOVIET_CONSTRUCTION_GROUNDWORKS": {
            "factor": 1.5,
            "building_keywords": [
                "$Tower"
            ],
            "building_nodes": [
                "MainBuildingNode"
            ]
        },
        "SOVIET_CONSTRUCTION_ROOFTOP_BUILDING": {
            "factor": 0.8,
            "building_all": true,
            "cost_resource_auto": {
                "roof_woodbrick": 5.0
            },
            "cost_resource": {
                "steel": 50.0
            },
            "vehicle_station_according_nodes": [
                "MainVehicleStationAccodingNode"
            ],
            "vehicle_stations": [
                {
                    "point1": {
                        "x": -10.0,
                        "y": 0.0,
                        "z": -5.0
                    },
                    "point2": {
                        "x": 10.0,
                        "y": 0.0,
                        "z": 5.0
                    }
                }
            ]
        }
    }
}
